<?xml version="1.0" encoding="UTF-8" standalone="no"?>
<svg
   xmlns:dc="http://purl.org/dc/elements/1.1/"
   xmlns:cc="http://creativecommons.org/ns#"
   xmlns:rdf="http://www.w3.org/1999/02/22-rdf-syntax-ns#"
   xmlns:svg="http://www.w3.org/2000/svg"
   xmlns="http://www.w3.org/2000/svg"
   viewBox="0 0 671.47998 671.47998"
   height="671.47998"
   width="671.47998"
   xml:space="preserve"
   id="svg2"
   version="1.1"><metadata
     id="metadata8"><rdf:RDF><cc:Work
         rdf:about=""><dc:format>image/svg+xml</dc:format><dc:type
           rdf:resource="http://purl.org/dc/dcmitype/StillImage" /></cc:Work></rdf:RDF></metadata><defs
     id="defs6" /><g
     transform="matrix(1.3333333,0,0,-1.3333333,0,671.48)"
     id="g10"><g
       transform="scale(0.1)"
       id="g12"><path
         id="path14"
         style="fill:#fff;fill-opacity:1;fill-rule:nonzero;stroke:none"
         d="M 503.605,503.609 H 4532.46 V 4868.2 H 503.605 Z M 4616.39,335.738 H 419.672 c -50.359,0 -83.934,33.582 -83.934,83.942 v 4532.46 c 0,50.36 33.575,83.93 83.934,83.93 H 4616.39 c 50.36,0 83.94,-33.57 83.94,-83.93 V 419.68 c 0,-50.36 -33.58,-83.942 -83.94,-83.942" /><path
         id="path16"
         style="fill:#fff;fill-opacity:1;fill-rule:nonzero;stroke:none"
         d="M 167.867,167.871 H 4868.2 V 335.738 H 167.867 Z M 4952.13,0 H 83.9336 C 33.5742,0 0,33.582 0,83.9414 V 419.68 c 0,50.359 33.5742,83.929 83.9336,83.929 H 4952.13 c 50.36,0 83.94,-33.57 83.94,-83.929 V 83.9414 C 5036.07,33.582 5002.49,0 4952.13,0" /><path
         id="path18"
         style="fill:#fff;fill-opacity:1;fill-rule:nonzero;stroke:none"
         d="m 1007.21,4112.79 h 503.61 v 335.74 h -503.61 z m 587.54,-167.87 H 923.277 c -50.359,0 -83.933,33.58 -83.933,83.94 v 503.6 c 0,50.36 33.574,83.94 83.933,83.94 h 671.473 c 50.36,0 83.94,-33.58 83.94,-83.94 v -503.6 c 0,-50.36 -33.58,-83.94 -83.94,-83.94" /><path
         id="path20"
         style="fill:#fff;fill-opacity:1;fill-rule:nonzero;stroke:none"
         d="m 1007.21,3189.51 h 503.61 v 335.74 h -503.61 z m 587.54,-167.87 H 923.277 c -50.359,0 -83.933,33.58 -83.933,83.94 v 503.6 c 0,50.37 33.574,83.94 83.933,83.94 h 671.473 c 50.36,0 83.94,-33.57 83.94,-83.94 v -503.6 c 0,-50.36 -33.58,-83.94 -83.94,-83.94" /><path
         id="path22"
         style="fill:#fff;fill-opacity:1;fill-rule:nonzero;stroke:none"
         d="m 2266.23,3189.51 h 503.61 v 335.74 h -503.61 z m 587.54,-167.87 h -671.48 c -50.36,0 -83.93,33.58 -83.93,83.94 v 503.6 c 0,50.37 33.57,83.94 83.93,83.94 h 671.48 c 50.36,0 83.93,-33.57 83.93,-83.94 v -503.6 c 0,-50.36 -33.57,-83.94 -83.93,-83.94" /><path
         id="path24"
         style="fill:#fff;fill-opacity:1;fill-rule:nonzero;stroke:none"
         d="m 3525.25,3189.51 h 503.6 v 335.74 h -503.6 z m 587.54,-167.87 h -671.48 c -50.36,0 -83.93,33.58 -83.93,83.94 v 503.6 c 0,50.37 33.57,83.94 83.93,83.94 h 671.48 c 50.36,0 83.93,-33.57 83.93,-83.94 v -503.6 c 0,-50.36 -33.57,-83.94 -83.93,-83.94" /><path
         id="path26"
         style="fill:#fff;fill-opacity:1;fill-rule:nonzero;stroke:none"
         d="m 2266.23,2266.23 h 503.61 v 335.74 h -503.61 z m 587.54,-167.86 h -671.48 c -50.36,0 -83.93,33.57 -83.93,83.93 v 503.61 c 0,50.36 33.57,83.93 83.93,83.93 h 671.48 c 50.36,0 83.93,-33.57 83.93,-83.93 V 2182.3 c 0,-50.36 -33.57,-83.93 -83.93,-83.93" /><path
         id="path28"
         style="fill:#fff;fill-opacity:1;fill-rule:nonzero;stroke:none"
         d="m 3525.25,2266.23 h 503.6 v 335.74 h -503.6 z m 587.54,-167.86 h -671.48 c -50.36,0 -83.93,33.57 -83.93,83.93 v 503.61 c 0,50.36 33.57,83.93 83.93,83.93 h 671.48 c 50.36,0 83.93,-33.57 83.93,-83.93 V 2182.3 c 0,-50.36 -33.57,-83.93 -83.93,-83.93" /><path
         id="path30"
         style="fill:#fff;fill-opacity:1;fill-rule:nonzero;stroke:none"
         d="m 1007.21,2266.23 h 503.61 v 335.74 h -503.61 z m 587.54,-167.86 H 923.277 c -50.359,0 -83.933,33.57 -83.933,83.93 v 503.61 c 0,50.36 33.574,83.93 83.933,83.93 h 671.473 c 50.36,0 83.94,-33.57 83.94,-83.93 V 2182.3 c 0,-50.36 -33.58,-83.93 -83.94,-83.93" /><path
         id="path32"
         style="fill:#fff;fill-opacity:1;fill-rule:nonzero;stroke:none"
         d="m 2266.23,4112.79 h 503.61 v 335.74 h -503.61 z m 587.54,-167.87 h -671.48 c -50.36,0 -83.93,33.58 -83.93,83.94 v 503.6 c 0,50.36 33.57,83.94 83.93,83.94 h 671.48 c 50.36,0 83.93,-33.58 83.93,-83.94 v -503.6 c 0,-50.36 -33.57,-83.94 -83.93,-83.94" /><path
         id="path34"
         style="fill:#fff;fill-opacity:1;fill-rule:nonzero;stroke:none"
         d="m 3525.25,4112.79 h 503.6 v 335.74 h -503.6 z m 587.54,-167.87 h -671.48 c -50.36,0 -83.93,33.58 -83.93,83.94 v 503.6 c 0,50.36 33.57,83.94 83.93,83.94 h 671.48 c 50.36,0 83.93,-33.58 83.93,-83.94 v -503.6 c 0,-50.36 -33.57,-83.94 -83.93,-83.94" /><path
         id="path36"
         style="fill:#fff;fill-opacity:1;fill-rule:nonzero;stroke:none"
         d="m 2601.97,503.609 h 503.6 v 839.351 h -503.6 z m 587.54,-167.871 h -671.48 c -50.36,0 -83.93,33.582 -83.93,83.942 v 1007.21 c 0,50.36 33.57,83.93 83.93,83.93 h 671.48 c 50.36,0 83.93,-33.57 83.93,-83.93 V 419.68 c 0,-50.36 -33.57,-83.942 -83.93,-83.942" /><path
         id="path38"
         style="fill:#fff;fill-opacity:1;fill-rule:nonzero;stroke:none"
         d="m 1930.49,503.609 h 503.61 v 839.351 h -503.61 z m 587.54,-167.871 h -671.47 c -50.36,0 -83.94,33.582 -83.94,83.942 v 1007.21 c 0,50.36 33.58,83.93 83.94,83.93 h 671.47 c 50.36,0 83.94,-33.57 83.94,-83.93 V 419.68 c 0,-50.36 -33.58,-83.942 -83.94,-83.942" /><path
         id="path40"
         style="fill:#fff;fill-opacity:1;fill-rule:nonzero;stroke:none"
         d="M 3021.64,1678.69 H 2014.43 c -50.36,0 -83.94,33.58 -83.94,83.94 0,50.36 33.58,83.93 83.94,83.93 h 1007.21 c 50.36,0 83.93,-33.57 83.93,-83.93 0,-50.36 -33.57,-83.94 -83.93,-83.94" /></g></g></svg>