<?xml version="1.0" encoding="UTF-8" standalone="no"?>
<svg
   xmlns:dc="http://purl.org/dc/elements/1.1/"
   xmlns:cc="http://creativecommons.org/ns#"
   xmlns:rdf="http://www.w3.org/1999/02/22-rdf-syntax-ns#"
   xmlns:svg="http://www.w3.org/2000/svg"
   xmlns="http://www.w3.org/2000/svg"
   viewBox="0 0 682.66669 681.53333"
   height="681.53333"
   width="682.66669"
   xml:space="preserve"
   id="svg2"
   version="1.1"><metadata
     id="metadata8"><rdf:RDF><cc:Work
         rdf:about=""><dc:format>image/svg+xml</dc:format><dc:type
           rdf:resource="http://purl.org/dc/dcmitype/StillImage" /></cc:Work></rdf:RDF></metadata><defs
     id="defs6" /><g
     transform="matrix(1.3333333,0,0,-1.3333333,0,681.53333)"
     id="g10"><g
       transform="scale(0.1)"
       id="g12"><path
         id="path14"
         style="fill:#fff;fill-opacity:1;fill-rule:nonzero;stroke:none"
         d="M 2346.67,930.141 H 2764.8 L 2560,1408 Z m 554.66,-170.672 h -682.66 c -25.6,0 -59.74,17.07 -68.27,42.672 -8.53,25.601 -17.07,51.199 -8.53,85.328 l 341.33,768.001 c 17.07,34.13 42.67,51.2 76.8,51.2 34.13,0 68.27,-17.07 76.8,-51.2 l 341.33,-768.001 c 8.54,-25.598 8.54,-59.727 -8.53,-85.328 -17.07,-25.602 -42.67,-42.672 -68.27,-42.672" /><path
         id="path16"
         style="fill:#fff;fill-opacity:1;fill-rule:nonzero;stroke:none"
         d="M 2295.47,759.469 2227.2,170.672 h 665.6 l -68.27,588.797 z M 2133.33,0 c -25.6,0 -51.2,8.53906 -59.73,25.6016 -17.07,17.0703 -25.6,42.6679 -17.07,68.2695 l 85.34,759.4689 c 8.53,42.66 42.66,76.801 85.33,76.801 h 682.67 c 42.66,0 76.8,-34.141 85.33,-76.801 l 85.33,-759.4689 c 0,-25.6016 -8.53,-51.1992 -17.06,-68.2695 C 3054.93,8.53906 3012.27,0 2986.67,0 h -853.34 v 0" /><path
         id="path18"
         style="fill:#fff;fill-opacity:1;fill-rule:nonzero;stroke:none"
         d="M 1629.87,1800.54 2201.6,1015.47 2432,1536 c -273.07,34.14 -546.13,179.2 -768,418.14 z m 588.8,-1041.071 c -25.6,0 -51.2,17.07 -68.27,34.133 l -682.67,938.668 c -17.06,25.6 -17.06,51.2 -17.06,76.8 L 1536,2150.4 c 8.53,25.6 25.6,42.67 51.2,59.74 25.6,8.53 51.2,8.53 76.8,0 l 25.6,-8.54 c 8.53,-8.53 17.07,-17.06 25.6,-25.6 238.93,-298.66 537.6,-469.33 844.8,-469.33 25.6,0 59.73,-17.07 68.27,-42.67 8.53,-25.6 17.06,-51.2 8.53,-85.33 L 2295.47,810.672 c -8.54,-25.602 -42.67,-51.203 -68.27,-51.203 h -8.53" /><path
         id="path20"
         style="fill:#fff;fill-opacity:1;fill-rule:nonzero;stroke:none"
         d="m 2688,1536 230.4,-520.53 571.73,785.07 -34.13,153.6 C 3234.13,1715.2 2961.07,1570.14 2688,1536 Z m 213.33,-776.531 h -8.53 c -34.13,0 -59.73,25.601 -68.27,51.203 L 2483.2,1578.67 c -8.53,25.6 -8.53,59.73 8.53,85.33 17.07,25.6 42.67,42.67 68.27,42.67 315.73,0 614.4,162.13 844.8,469.33 8.53,8.54 17.07,17.07 25.6,25.6 l 25.6,8.54 c 25.6,8.53 51.2,17.06 76.8,0 25.6,-8.54 42.67,-34.14 51.2,-59.74 l 85.33,-341.33 c 8.54,-25.6 0,-51.2 -17.06,-68.27 L 2969.6,802.141 c -17.07,-25.602 -42.67,-42.672 -68.27,-42.672" /><path
         id="path22"
         style="fill:#fff;fill-opacity:1;fill-rule:nonzero;stroke:none"
         d="M 3063.47,170.672 H 4949.33 V 785.07 c 0,110.93 -59.73,213.328 -162.13,273.07 v 0 C 4249.6,1339.74 3848.53,1484.8 3498.67,1536 l -512,-708.258 z M 5034.67,0 h -2048 c -42.67,0 -76.8,34.1406 -85.34,76.8008 L 2816,836.27 c 0,17.07 0,42.671 17.07,59.73 l 554.66,768 c 17.07,25.6 42.67,34.14 68.27,34.14 h 42.67 8.53 c 375.47,-42.67 793.6,-196.27 1356.8,-494.94 v 0 c 153.6,-85.33 256,-247.458 256,-418.13 V 85.3398 C 5120,34.1406 5085.87,0 5034.67,0" /><path
         id="path24"
         style="fill:#fff;fill-opacity:1;fill-rule:nonzero;stroke:none"
         d="M 170.668,170.672 H 2056.53 l 76.8,648.527 -512,708.271 C 1271.47,1484.8 878.934,1339.74 332.801,1049.6 230.398,998.398 170.668,896 170.668,785.07 Z M 2133.33,0 H 85.332 C 34.1328,0 0,34.1406 0,85.3398 V 785.07 c 0,179.2 93.8672,341.33 256,418.13 563.199,298.67 981.33,452.27 1356.8,494.94 h 8.53 42.67 c 25.6,0 51.2,-17.07 68.27,-34.14 l 554.66,-768 c 8.54,-17.059 17.07,-42.66 17.07,-59.73 L 2218.67,76.8008 C 2210.13,34.1406 2176,0 2133.33,0" /><path
         id="path26"
         style="fill:#fff;fill-opacity:1;fill-rule:nonzero;stroke:none"
         d="m 2560,4940.8 c -657.07,0 -1194.67,-537.6 -1194.67,-1194.66 V 3148.8 c 0,-827.73 631.47,-1450.66 1194.67,-1450.66 563.2,0 1194.67,622.93 1194.67,1450.66 v 597.34 c 0,657.06 -537.6,1194.66 -1194.67,1194.66 z m 0,-3413.33 c -785.07,0 -1365.33,853.33 -1365.33,1621.33 v 597.34 c 0,750.93 614.4,1365.33 1365.33,1365.33 750.93,0 1365.33,-614.4 1365.33,-1365.33 V 3148.8 c 0,-768 -580.26,-1621.33 -1365.33,-1621.33" /></g></g></svg>